[gd_scene load_steps=2 format=2]

[ext_resource path="res://Container.gd" type="Script" id=1]

[node name="Container" type="Control"]
anchor_right = 1.0
anchor_bottom = 1.0
script = ExtResource( 1 )

[node name="Overlazed" type="PanelContainer" parent="."]
anchor_right = 1.0
anchor_bottom = 1.0

[node name="Button" type="Button" parent="Overlazed"]
margin_left = 7.0
margin_top = 7.0
margin_right = 1017.0
margin_bottom = 593.0
text = "Press me!"

[node name="Overlay" type="PanelContainer" parent="."]
modulate = Color( 1, 1, 1, 0 )
anchor_right = 1.0
anchor_bottom = 1.0

[node name="HideOverlay" type="CheckBox" parent="."]
anchor_left = 0.5
anchor_right = 0.5
margin_left = 327.0
margin_top = 501.0
margin_right = 451.0
margin_bottom = 554.0
text = "Hide Overlay"

[connection signal="toggled" from="HideOverlay" to="." method="_on_HideOverlay_toggled"]
